EDA: Diabetes Health Indicators – Final Project: Diabetes Prediction
…
# A tibble: 1 × 2
  n_observations n_variables
           <int>       <int>
1         253680          22

# A tibble: 22 × 2
   variable             n_missing
   <chr>                    <int>
 1 Diabetes_binary              0
 2 HighBP                       0
 3 HighChol                     0
 4 CholCheck                    0
 5 BMI                          0
 6 Smoker                       0
 7 Stroke                       0
 8 HeartDiseaseorAttack         0
 9 PhysActivity                 0
10 Fruits                       0
# ℹ 12 more rows
…
